[
    {
        "group": 1,
        "imports": [],
        "name": "0_mean_img_2",
        "size": 1
    },
    {
        "group": 1,
        "imports": [],
        "name": "1_mean_img_1",
        "size": 1
    },
    {
        "group": 1,
        "imports": [
            "1_mean_img_1",
            "0_mean_img_2"
        ],
        "name": "2_concat_mean_files",
        "size": 1
    },
    {
        "group": 1,
        "imports": [
            "2_concat_mean_files"
        ],
        "name": "3_merged_means",
        "size": 1
    },
    {
        "group": 1,
        "imports": [
            "3_merged_means"
        ],
        "name": "4_topup",
        "size": 1
    },
    {
        "group": 1,
        "imports": [
            "4_topup"
        ],
        "name": "5_applytopup2",
        "size": 1
    },
    {
        "group": 1,
        "imports": [
            "4_topup"
        ],
        "name": "6_applytopup1",
        "size": 1
    },
    {
        "group": 1,
        "imports": [
            "6_applytopup1",
            "5_applytopup2"
        ],
        "name": "7_concat_corrected_files",
        "size": 1
    },
    {
        "group": 1,
        "imports": [
            "7_concat_corrected_files"
        ],
        "name": "8_merged_corrected",
        "size": 1
    },
    {
        "group": 2,
        "imports": [],
        "name": "9_concat_files",
        "size": 1
    }
]