{
    "descriptions": [
        {
            "dataType": "anat",
            "modalityLabel": "T1w",
            "criteria": {
                "SeriesDescription": "*Sag_T1*"
            }
        },
        {
            "dataType": "anat",
            "modalityLabel": "T2w",
            "criteria": {
                "SeriesDescription": "*Sag_T2*"
            }
        },
        {
            "dataType": "func",
            "modalityLabel": "bold",
            "customLabels": "task-rest",
            "criteria": {
                "SeriesDescription": "*9r-cmrr*"
            }
        }
    ]
}
